{
    "adult": false,
    "backdrop_path": "/qA2TyqPldTtoTVY3LKrNIG5g6bH.jpg",
    "belongs_to_collection": {
        "id": 123800,
        "name": "Before... Collection",
        "poster_path": "/bBS1CfspKXq5RBok85hYvtW9ZwE.jpg",
        "backdrop_path": "/to3l6Gwzd7FGWa9Spc708IP1K7l.jpg"
    },
    "budget": 2500000,
    "genres": [
        {
            "id": 18,
            "name": "Drama"
        },
        {
            "id": 10749,
            "name": "Romance"
        }
    ],
    "homepage": "https://www.warnerbros.com/movies/sunrise",
    "id": 76,
    "imdb_id": "tt0112471",
    "original_language": "en",
    "original_title": "Before Sunrise",
    "overview": "A young man and woman meet on a train in Europe, and wind up spending one evening together in Vienna. Unfortunately, both know that this will probably be their only night together.",
    "popularity": 21.48,
    "poster_path": "/aZ2Vkrc4RqIjewYbmfy74oDgZfX.jpg",
    "production_companies": [
        {
            "id": 97,
            "logo_path": "/7znWcbDd4PcJzJUlJxYqAlPPykp.png",
            "name": "Castle Rock Entertainment",
            "origin_country": "US"
        },
        {
            "id": 104576,
            "logo_path": "/sNhEzePPkxW3AKqr3l0h7I1k0hR.png",
            "name": "Filmhaus Films",
            "origin_country": "AT"
        },
        {
            "id": 11510,
            "logo_path": "/gg3gP2wHNNfOfLKdXGjYC9qJ9ok.png",
            "name": "Detour Filmproduction",
            "origin_country": "US"
        }
    ],
    "production_countries": [
        {
            "iso_3166_1": "AT",
            "name": "Austria"
        },
        {
            "iso_3166_1": "CH",
            "name": "Switzerland"
        },
        {
            "iso_3166_1": "US",
            "name": "United States of America"
        }
    ],
    "release_date": "1995-01-27",
    "revenue": 5987386,
    "runtime": 101,
    "spoken_languages": [],
    "status": "Released",
    "tagline": "Can the greatest romance of your life last only one night?",
    "title": "Before Sunrise",
    "video": false,
    "vote_average": 7.964,
    "vote_count": 3481,
    "alternative_titles": {
        "titles": [
            {
                "iso_3166_1": "CN",
                "title": "爱在黎明破晓时",
                "type": ""
            },
            {
                "iso_3166_1": "CN",
                "title": "情留半天",
                "type": ""
            },
            {
                "iso_3166_1": "CN",
                "title": "日出之前",
                "type": ""
            },
            {
                "iso_3166_1": "DE",
                "title": "Zwischenstopp in Wien",
                "type": ""
            },
            {
                "iso_3166_1": "UA",
                "title": "Перед сходом сонця",
                "type": ""
            },
            {
                "iso_3166_1": "UA",
                "title": "До сходу сонця",
                "type": ""
            },
            {
                "iso_3166_1": "KR",
                "title": "비포 선라이즈",
                "type": ""
            },
            {
                "iso_3166_1": "BR",
                "title": "Antes do Amanhecer",
                "type": ""
            },
            {
                "iso_3166_1": "CN",
                "title": "爱在日落黄昏时",
                "type": ""
            },
            {
                "iso_3166_1": "PT",
                "title": "Antes do Amanhecer",
                "type": "Drama, Romance"
            },
            {
                "iso_3166_1": "NO",
                "title": "Før Soloppgang",
                "type": ""
            },
            {
                "iso_3166_1": "RS",
                "title": "Пре свитања",
                "type": ""
            }
        ]
    },
    "changes": {
        "changes": []
    },
    "credits": {
        "cast": [
            {
                "adult": false,
                "gender": 2,
                "id": 569,
                "known_for_department": "Acting",
                "name": "Ethan Hawke",
                "original_name": "Ethan Hawke",
                "popularity": 42.061,
                "profile_path": "/8rw5H5mdaIgHmHY0rRkBTaodq7M.jpg",
                "cast_id": 4,
                "character": "Jesse Wallace",
                "credit_id": "52fe4214c3a36847f80023e5",
                "order": 0
            },
            {
                "adult": false,
                "gender": 1,
                "id": 1146,
                "known_for_department": "Acting",
                "name": "Julie Delpy",
                "original_name": "Julie Delpy",
                "popularity": 12.388,
                "profile_path": "/rd40f4QpAUUne3hMaUhHrZtcK2c.jpg",
                "cast_id": 16,
                "character": "Céline",
                "credit_id": "52fe4214c3a36847f800241b",
                "order": 1
            }
        ],
        "crew": [
            {
                "adult": false,
                "gender": 2,
                "id": 564,
                "known_for_department": "Directing",
                "name": "Richard Linklater",
                "original_name": "Richard Linklater",
                "popularity": 5.887,
                "profile_path": "/wY7oWnyTm5iAkzkHUmhm6yekYPG.jpg",
                "credit_id": "52fe4214c3a36847f800244d",
                "department": "Writing",
                "job": "Screenplay"
            },
            {
                "adult": false,
                "gender": 2,
                "id": 564,
                "known_for_department": "Directing",
                "name": "Richard Linklater",
                "original_name": "Richard Linklater",
                "popularity": 5.887,
                "profile_path": "/wY7oWnyTm5iAkzkHUmhm6yekYPG.jpg",
                "credit_id": "52fe4214c3a36847f80023e1",
                "department": "Directing",
                "job": "Director"
            }
        ]
    },
    "external_ids": {
        "imdb_id": "tt0112471",
        "wikidata_id": null,
        "facebook_id": "BeforeSunriseWB",
        "instagram_id": null,
        "twitter_id": null
    },
    "images": {
        "backdrops": [],
        "logos": [],
        "posters": []
    },
    "keywords": {
        "keywords": [
            {
                "id": 813,
                "name": "sunrise"
            },
            {
                "id": 814,
                "name": "talking"
            },
            {
                "id": 815,
                "name": "soulmates"
            },
            {
                "id": 816,
                "name": "walking"
            },
            {
                "id": 1201,
                "name": "austria"
            },
            {
                "id": 18267,
                "name": "vienna, austria"
            }
        ]
    },
    "lists": {
        "page": 1,
        "results": [
            {
                "description": "",
                "favorite_count": 0,
                "id": 48872,
                "item_count": 748,
                "iso_639_1": "en",
                "list_type": "movie",
                "name": "DVD / Blu-ray collection",
                "poster_path": null
            },
            {
                "description": "",
                "favorite_count": 0,
                "id": 8168597,
                "item_count": 14281,
                "iso_639_1": "en",
                "list_type": "movie",
                "name": "movies",
                "poster_path": null
            },
            {
                "description": "Any film I've seen in full from childhood to the present day and that's it. Some I may have seen only once or twice and others perhaps dozens of times. All films included regardless of genre, length, nationality, whether in black and white or color, live or animated, standalone pieces or part of a series.",
                "favorite_count": 0,
                "id": 125941,
                "item_count": 1715,
                "iso_639_1": "en",
                "list_type": "movie",
                "name": "Films I've Seen in Full",
                "poster_path": null
            }
        ],
        "total_pages": 19,
        "total_results": 380
    },
    "recommendations": {
        "page": 1,
        "results": [
            {
                "adult": false,
                "backdrop_path": "/zwgDZw9dyrgkYz2RCOb2HvUDlt2.jpg",
                "id": 80,
                "title": "Before Sunset",
                "original_language": "en",
                "original_title": "Before Sunset",
                "overview": "Nine years later, Jesse travels across Europe giving readings from a book he wrote about the night he spent in Vienna with Celine. After his reading in Paris, Celine finds him, and they spend part of the day together before Jesse has to again leave for a flight. They are both in relationships now, and Jesse has a son, but as their strong feelings for each other start to return, both confess a longing for more.",
                "poster_path": "/gycdE1ARByGQcK4fYR2mgpU6OO.jpg",
                "media_type": "movie",
                "genre_ids": [
                    18,
                    10749
                ],
                "popularity": 16.256,
                "release_date": "2004-02-10",
                "video": false,
                "vote_average": 7.824,
                "vote_count": 2885
            },
            {
                "adult": false,
                "backdrop_path": "/uFAKxHJH8A6nzqQQKrtQYvANCjo.jpg",
                "id": 132344,
                "title": "Before Midnight",
                "original_language": "en",
                "original_title": "Before Midnight",
                "overview": "It has been nine years since we last met Jesse and Celine, the French-American couple who once met on a train in Vienna. Now, live in Paris with twin daughters, but have spent a summer in Greece on the invitation of an author colleague of Jesse's. When the vacation is over and Jesse must send his teenage son off to the States, he begins to question his life decisions, and his relationship with Celine is at risk.",
                "poster_path": "/6wTw6762kAVTkyQWoHRUuUiRpBp.jpg",
                "media_type": "movie",
                "genre_ids": [
                    10749,
                    18
                ],
                "popularity": 12.233,
                "release_date": "2013-04-05",
                "video": false,
                "vote_average": 7.503,
                "vote_count": 2018
            }
        ],
        "total_pages": 2,
        "total_results": 40
    },
    "release_dates": {
        "results": [
            {
                "iso_3166_1": "NL",
                "release_dates": [
                    {
                        "certification": "AL",
                        "descriptors": [],
                        "iso_639_1": "",
                        "note": "DVD, Blu ray",
                        "release_date": "2005-03-09T00:00:00.000Z",
                        "type": 5
                    },
                    {
                        "certification": "AL",
                        "descriptors": [],
                        "iso_639_1": "",
                        "note": "SBS 6",
                        "release_date": "2010-10-02T00:00:00.000Z",
                        "type": 6
                    }
                ]
            },
            {
                "iso_3166_1": "US",
                "release_dates": [
                    {
                        "certification": "",
                        "descriptors": [],
                        "iso_639_1": "",
                        "note": "Sundance Film Festival",
                        "release_date": "1995-01-19T00:00:00.000Z",
                        "type": 1
                    },
                    {
                        "certification": "R",
                        "descriptors": [],
                        "iso_639_1": "",
                        "note": "",
                        "release_date": "1995-01-27T00:00:00.000Z",
                        "type": 3
                    }
                ]
            }
        ]
    },
    "reviews": {
        "page": 1,
        "results": [
            {
                "author": "edward",
                "author_details": {
                    "name": "edward",
                    "username": "etmahoney",
                    "avatar_path": "/3lZdUUxUosB8TI5hbIuBG7GF2UJ.jpg",
                    "rating": null
                },
                "content": "Box office $ 5.5 million\r\n\r\nThis was the first time I saw a movie that had nothing close to a human antagonist, yet it kept me glued to the screen. Sure I've read a few novels of the kind but surely they weren't \"oh I'm glued\" stuff. Everybody at least once in their life dreams of something like this and this movie makes it believable. After watching the movie I really thought that Ethan & Julie must have dated 'cause their conversations were just flowing. Definitely a must see.",
                "created_at": "2017-02-19T16:43:55.764Z",
                "id": "58a9cb4b92514173f600aa69",
                "updated_at": "2021-06-23T15:57:54.594Z",
                "url": "https://www.themoviedb.org/review/58a9cb4b92514173f600aa69"
            }
        ],
        "total_pages": 1,
        "total_results": 1
    },
    "similar": {
        "page": 1,
        "results": [
            {
                "adult": false,
                "backdrop_path": "/nVl6SKKzuweWqDo56Iipov2tqm0.jpg",
                "genre_ids": [
                    28,
                    53,
                    10770
                ],
                "id": 839,
                "original_language": "en",
                "original_title": "Duel",
                "overview": "Traveling businessman David Mann angers the driver of a rusty tanker while crossing the California desert. A simple trip turns deadly, as Mann struggles to stay on the road while the tanker plays cat and mouse with his life.",
                "popularity": 19.74,
                "poster_path": "/5UGyUqJGeaGk2mQxdtHIfqykTtb.jpg",
                "release_date": "1971-11-13",
                "title": "Duel",
                "video": false,
                "vote_average": 7.409,
                "vote_count": 1563
            },
            {
                "adult": false,
                "backdrop_path": "/ioOJOynKH49uTRXYhKDgGJkHDud.jpg",
                "genre_ids": [
                    18
                ],
                "id": 890,
                "original_language": "de",
                "original_title": "Schlafes Bruder",
                "overview": "In the beginning of the 19th century, Johannes Elias Alder is born in a small village in the Austrian mountains. While growing up he is considered strange by the other villagers and discovers his love of music, especially rebuilding and playing the organ at the village church. After experiencing an \"acoustic wonder\", his eye color changes and he can hear even the most subtle sounds.",
                "popularity": 2.9,
                "poster_path": "/wjvaafRCIGKLTJYm45oWgB494gJ.jpg",
                "release_date": "1995-09-08",
                "title": "Brother of Sleep",
                "video": false,
                "vote_average": 6.6,
                "vote_count": 26
            }
        ],
        "total_pages": 20,
        "total_results": 385
    },
    "translations": {},
    "videos": {
        "results": [
            {
                "iso_639_1": "en",
                "iso_3166_1": "US",
                "name": "Before Sunrise - Trailer",
                "key": "25v7N34d5HE",
                "published_at": "2013-11-05T10:39:51.000Z",
                "site": "YouTube",
                "size": 360,
                "type": "Trailer",
                "official": false,
                "id": "5ad45e650e0a2628b9012d7c"
            }
        ]
    },
    "watch/providers": {
        "results": {
            "AE": {
                "link": "https://www.themoviedb.org/movie/76-before-sunrise/watch?locale=AE",
                "buy": [
                    {
                        "logo_path": "/tbEdFQDwx5LEVr8WpSeXQSIirVq.jpg",
                        "provider_id": 3,
                        "provider_name": "Google Play Movies",
                        "display_priority": 3
                    }
                ],
                "rent": [
                    {
                        "logo_path": "/tbEdFQDwx5LEVr8WpSeXQSIirVq.jpg",
                        "provider_id": 3,
                        "provider_name": "Google Play Movies",
                        "display_priority": 3
                    }
                ]
            },
            "AG": {
                "link": "https://www.themoviedb.org/movie/76-before-sunrise/watch?locale=AG",
                "rent": [
                    {
                        "logo_path": "/tbEdFQDwx5LEVr8WpSeXQSIirVq.jpg",
                        "provider_id": 3,
                        "provider_name": "Google Play Movies",
                        "display_priority": 1000
                    }
                ],
                "buy": [
                    {
                        "logo_path": "/tbEdFQDwx5LEVr8WpSeXQSIirVq.jpg",
                        "provider_id": 3,
                        "provider_name": "Google Play Movies",
                        "display_priority": 1000
                    }
                ]
            }
        }
    }
}
