{
    "results": [
        {
            "id": 412683,
            "adult": false
        },
        {
            "id": 412685,
            "adult": false
        },
        {
            "id": 75258,
            "adult": false
        },
        {
            "id": 60308,
            "adult": false
        },
        {
            "id": 314851,
            "adult": false
        },
        {
            "id": 224076,
            "adult": false
        },
        {
            "id": 412684,
            "adult": false
        },
        {
            "id": 412686,
            "adult": false
        },
        {
            "id": 412687,
            "adult": false
        },
        {
            "id": 309063,
            "adult": false
        },
        {
            "id": 357201,
            "adult": false
        },
        {
            "id": 412660,
            "adult": false
        },
        {
            "id": 412689,
            "adult": false
        },
        {
            "id": 197583,
            "adult": false
        },
        {
            "id": 412690,
            "adult": false
        },
        {
            "id": 412691,
            "adult": false
        },
        {
            "id": 412692,
            "adult": false
        },
        {
            "id": 333373,
            "adult": false
        },
        {
            "id": 214761,
            "adult": false
        },
        {
            "id": 412693,
            "adult": false
        },
        {
            "id": 54990,
            "adult": false
        },
        {
            "id": 392620,
            "adult": false
        },
        {
            "id": 2087,
            "adult": false
        },
        {
            "id": 412694,
            "adult": false
        },
        {
            "id": 2649,
            "adult": false
        },
        {
            "id": 348537,
            "adult": false
        },
        {
            "id": 371865,
            "adult": false
        },
        {
            "id": 368374,
            "adult": false
        },
        {
            "id": 10747,
            "adult": false
        },
        {
            "id": 412695,
            "adult": false
        },
        {
            "id": 283418,
            "adult": false
        },
        {
            "id": 271686,
            "adult": false
        },
        {
            "id": 412696,
            "adult": false
        },
        {
            "id": 141021,
            "adult": false
        },
        {
            "id": 404439,
            "adult": false
        },
        {
            "id": 412698,
            "adult": false
        },
        {
            "id": 402331,
            "adult": false
        },
        {
            "id": 412699,
            "adult": false
        },
        {
            "id": 1285,
            "adult": false
        },
        {
            "id": 19214,
            "adult": false
        },
        {
            "id": 258034,
            "adult": false
        },
        {
            "id": 161838,
            "adult": false
        },
        {
            "id": 130774,
            "adult": false
        },
        {
            "id": 412700,
            "adult": false
        },
        {
            "id": 412701,
            "adult": false
        },
        {
            "id": 412702,
            "adult": false
        },
        {
            "id": 412703,
            "adult": false
        },
        {
            "id": 10972,
            "adult": false
        },
        {
            "id": 236215,
            "adult": false
        },
        {
            "id": 499,
            "adult": false
        },
        {
            "id": 2047,
            "adult": false
        },
        {
            "id": 407825,
            "adult": false
        },
        {
            "id": 32220,
            "adult": false
        },
        {
            "id": 410209,
            "adult": false
        },
        {
            "id": 412704,
            "adult": false
        },
        {
            "id": 411735,
            "adult": false
        },
        {
            "id": 412705,
            "adult": false
        },
        {
            "id": 3549,
            "adult": false
        },
        {
            "id": 393877,
            "adult": false
        },
        {
            "id": 412706,
            "adult": false
        },
        {
            "id": 49026,
            "adult": false
        },
        {
            "id": 290762,
            "adult": false
        },
        {
            "id": 1124,
            "adult": false
        },
        {
            "id": 26271,
            "adult": false
        },
        {
            "id": 408,
            "adult": false
        },
        {
            "id": 412707,
            "adult": false
        },
        {
            "id": 3043,
            "adult": false
        },
        {
            "id": 11353,
            "adult": false
        },
        {
            "id": 40095,
            "adult": false
        },
        {
            "id": 71579,
            "adult": false
        },
        {
            "id": 412708,
            "adult": false
        },
        {
            "id": 262463,
            "adult": false
        },
        {
            "id": 43360,
            "adult": false
        },
        {
            "id": 368188,
            "adult": false
        },
        {
            "id": 59117,
            "adult": false
        },
        {
            "id": 412709,
            "adult": false
        },
        {
            "id": 399406,
            "adult": false
        },
        {
            "id": 392572,
            "adult": false
        },
        {
            "id": 397503,
            "adult": false
        },
        {
            "id": 267852,
            "adult": false
        },
        {
            "id": 412710,
            "adult": false
        },
        {
            "id": 412711,
            "adult": false
        },
        {
            "id": 412712,
            "adult": false
        },
        {
            "id": 53342,
            "adult": false
        },
        {
            "id": 412713,
            "adult": false
        },
        {
            "id": 1284,
            "adult": false
        },
        {
            "id": 1283,
            "adult": false
        },
        {
            "id": 2019,
            "adult": false
        },
        {
            "id": 412714,
            "adult": false
        },
        {
            "id": 352179,
            "adult": false
        },
        {
            "id": 412715,
            "adult": false
        },
        {
            "id": 336265,
            "adult": false
        },
        {
            "id": 412716,
            "adult": false
        },
        {
            "id": 358881,
            "adult": false
        },
        {
            "id": 254869,
            "adult": false
        },
        {
            "id": 86822,
            "adult": false
        },
        {
            "id": 73420,
            "adult": false
        },
        {
            "id": 412717,
            "adult": false
        },
        {
            "id": 82386,
            "adult": false
        },
        {
            "id": 412718,
            "adult": false
        }
    ],
    "page": 1,
    "total_pages": 10,
    "total_results": 952
}