{
    "results": [
        {
            "id": 1670120,
            "adult": false
        },
        {
            "id": 1670121,
            "adult": false
        },
        {
            "id": 1670122,
            "adult": false
        },
        {
            "id": 1670123,
            "adult": false
        },
        {
            "id": 1670124,
            "adult": false
        },
        {
            "id": 1670125,
            "adult": false
        },
        {
            "id": 123476,
            "adult": false
        },
        {
            "id": 1670126,
            "adult": false
        },
        {
            "id": 93069,
            "adult": false
        },
        {
            "id": 1670127,
            "adult": false
        },
        {
            "id": 1670128,
            "adult": false
        },
        {
            "id": 1061663,
            "adult": false
        },
        {
            "id": 1363741,
            "adult": false
        },
        {
            "id": 1670129,
            "adult": false
        },
        {
            "id": 1670130,
            "adult": false
        },
        {
            "id": 1670131,
            "adult": false
        },
        {
            "id": 1670132,
            "adult": false
        },
        {
            "id": 1670133,
            "adult": false
        },
        {
            "id": 1670134,
            "adult": false
        },
        {
            "id": 96529,
            "adult": false
        },
        {
            "id": 1214234,
            "adult": false
        },
        {
            "id": 1670135,
            "adult": false
        },
        {
            "id": 1670136,
            "adult": false
        },
        {
            "id": 1670137,
            "adult": false
        },
        {
            "id": 1670138,
            "adult": false
        },
        {
            "id": 1670139,
            "adult": false
        },
        {
            "id": 1670140,
            "adult": false
        },
        {
            "id": 1670141,
            "adult": false
        },
        {
            "id": 1670142,
            "adult": false
        },
        {
            "id": 1670143,
            "adult": false
        },
        {
            "id": 1670144,
            "adult": false
        },
        {
            "id": 1670145,
            "adult": false
        },
        {
            "id": 1670146,
            "adult": false
        },
        {
            "id": 1670147,
            "adult": false
        },
        {
            "id": 1670148,
            "adult": false
        },
        {
            "id": 1670149,
            "adult": false
        },
        {
            "id": 1670150,
            "adult": false
        },
        {
            "id": 1670151,
            "adult": false
        },
        {
            "id": 1110505,
            "adult": false
        },
        {
            "id": 1670152,
            "adult": false
        },
        {
            "id": 1670153,
            "adult": false
        },
        {
            "id": 1621789,
            "adult": false
        },
        {
            "id": 1670154,
            "adult": false
        },
        {
            "id": 135434,
            "adult": false
        },
        {
            "id": 1670155,
            "adult": false
        },
        {
            "id": 1670156,
            "adult": false
        },
        {
            "id": 1670157,
            "adult": false
        },
        {
            "id": 1410725,
            "adult": false
        },
        {
            "id": 205937,
            "adult": false
        },
        {
            "id": 106278,
            "adult": false
        },
        {
            "id": 1670158,
            "adult": false
        },
        {
            "id": 15443,
            "adult": false
        },
        {
            "id": 1670159,
            "adult": false
        },
        {
            "id": 79651,
            "adult": false
        },
        {
            "id": 1427212,
            "adult": false
        },
        {
            "id": 183048,
            "adult": false
        },
        {
            "id": 1423073,
            "adult": false
        },
        {
            "id": 1128416,
            "adult": false
        },
        {
            "id": 1670160,
            "adult": false
        },
        {
            "id": 123456,
            "adult": false
        },
        {
            "id": 1042160,
            "adult": false
        },
        {
            "id": 1268136,
            "adult": false
        },
        {
            "id": 1230315,
            "adult": false
        },
        {
            "id": 228875,
            "adult": false
        },
        {
            "id": 48928,
            "adult": false
        },
        {
            "id": 80232,
            "adult": false
        },
        {
            "id": 228876,
            "adult": false
        },
        {
            "id": 212480,
            "adult": false
        },
        {
            "id": 1670161,
            "adult": false
        },
        {
            "id": 1670162,
            "adult": false
        },
        {
            "id": 228877,
            "adult": false
        },
        {
            "id": 228879,
            "adult": false
        },
        {
            "id": 947283,
            "adult": false
        },
        {
            "id": 1094471,
            "adult": false
        },
        {
            "id": 1025909,
            "adult": false
        },
        {
            "id": 228880,
            "adult": false
        },
        {
            "id": 1670163,
            "adult": false
        },
        {
            "id": 1670164,
            "adult": false
        },
        {
            "id": 1670165,
            "adult": false
        },
        {
            "id": 1213599,
            "adult": false
        },
        {
            "id": 1670166,
            "adult": false
        },
        {
            "id": 1093951,
            "adult": false
        },
        {
            "id": 1423066,
            "adult": false
        },
        {
            "id": 1263988,
            "adult": false
        },
        {
            "id": 1670167,
            "adult": false
        },
        {
            "id": 1670168,
            "adult": false
        },
        {
            "id": 1670169,
            "adult": false
        },
        {
            "id": 1670170,
            "adult": false
        },
        {
            "id": 1423064,
            "adult": false
        },
        {
            "id": 1291602,
            "adult": false
        },
        {
            "id": 1093955,
            "adult": false
        },
        {
            "id": 1423069,
            "adult": false
        },
        {
            "id": 1670171,
            "adult": false
        },
        {
            "id": 1670172,
            "adult": false
        },
        {
            "id": 1670173,
            "adult": false
        },
        {
            "id": 1670174,
            "adult": false
        },
        {
            "id": 1670175,
            "adult": false
        },
        {
            "id": 1670176,
            "adult": false
        },
        {
            "id": 1670177,
            "adult": false
        },
        {
            "id": 1670178,
            "adult": false
        }
    ],
    "page": 1,
    "total_pages": 7,
    "total_results": 620
}
