{
    "results": [
        {
            "id": 67563,
            "adult": false
        },
        {
            "id": 55169,
            "adult": false
        },
        {
            "id": 63279,
            "adult": false
        },
        {
            "id": 67409,
            "adult": false
        },
        {
            "id": 67564,
            "adult": false
        },
        {
            "id": 37606,
            "adult": false
        },
        {
            "id": 63355,
            "adult": false
        },
        {
            "id": 62881,
            "adult": false
        },
        {
            "id": 64572,
            "adult": false
        },
        {
            "id": 64043,
            "adult": false
        },
        {
            "id": 30983,
            "adult": false
        },
        {
            "id": 4419,
            "adult": false
        },
        {
            "id": 60699,
            "adult": false
        },
        {
            "id": 61013,
            "adult": false
        },
        {
            "id": 62223,
            "adult": false
        },
        {
            "id": 67286,
            "adult": false
        },
        {
            "id": 62875,
            "adult": false
        },
        {
            "id": 67130,
            "adult": false
        },
        {
            "id": 67400,
            "adult": false
        },
        {
            "id": 34421,
            "adult": false
        },
        {
            "id": 62959,
            "adult": false
        },
        {
            "id": 67391,
            "adult": false
        },
        {
            "id": 12271,
            "adult": false
        },
        {
            "id": 62710,
            "adult": false
        },
        {
            "id": 615,
            "adult": false
        },
        {
            "id": 3936,
            "adult": false
        },
        {
            "id": 65955,
            "adult": false
        },
        {
            "id": 65249,
            "adult": false
        },
        {
            "id": 20766,
            "adult": null
        },
        {
            "id": 4709,
            "adult": false
        },
        {
            "id": 43720,
            "adult": false
        },
        {
            "id": 67568,
            "adult": null
        },
        {
            "id": 6292,
            "adult": false
        },
        {
            "id": 4638,
            "adult": false
        },
        {
            "id": 67569,
            "adult": null
        },
        {
            "id": 64537,
            "adult": false
        },
        {
            "id": 21729,
            "adult": false
        },
        {
            "id": 7289,
            "adult": false
        },
        {
            "id": 47316,
            "adult": false
        },
        {
            "id": 60905,
            "adult": false
        },
        {
            "id": 67570,
            "adult": false
        },
        {
            "id": 60625,
            "adult": false
        },
        {
            "id": 46849,
            "adult": false
        },
        {
            "id": 1421,
            "adult": false
        },
        {
            "id": 63351,
            "adult": false
        },
        {
            "id": 47153,
            "adult": false
        },
        {
            "id": 30991,
            "adult": false
        },
        {
            "id": 62425,
            "adult": false
        },
        {
            "id": 34965,
            "adult": false
        },
        {
            "id": 31500,
            "adult": false
        },
        {
            "id": 42548,
            "adult": false
        },
        {
            "id": 47039,
            "adult": false
        },
        {
            "id": 49008,
            "adult": false
        },
        {
            "id": 65264,
            "adult": false
        },
        {
            "id": 1420,
            "adult": false
        },
        {
            "id": 66732,
            "adult": false
        },
        {
            "id": 35660,
            "adult": false
        },
        {
            "id": 60654,
            "adult": false
        },
        {
            "id": 67046,
            "adult": false
        },
        {
            "id": 31351,
            "adult": false
        },
        {
            "id": 64230,
            "adult": false
        },
        {
            "id": 65715,
            "adult": false
        },
        {
            "id": 61944,
            "adult": false
        },
        {
            "id": 67497,
            "adult": false
        },
        {
            "id": 60988,
            "adult": false
        },
        {
            "id": 64821,
            "adult": false
        },
        {
            "id": 4589,
            "adult": false
        },
        {
            "id": 61676,
            "adult": false
        },
        {
            "id": 67571,
            "adult": false
        },
        {
            "id": 380,
            "adult": false
        },
        {
            "id": 1973,
            "adult": false
        },
        {
            "id": 61239,
            "adult": false
        },
        {
            "id": 1425,
            "adult": false
        },
        {
            "id": 43901,
            "adult": false
        },
        {
            "id": 44606,
            "adult": false
        },
        {
            "id": 67274,
            "adult": false
        },
        {
            "id": 66776,
            "adult": false
        },
        {
            "id": 2720,
            "adult": false
        },
        {
            "id": 14508,
            "adult": false
        },
        {
            "id": 1419,
            "adult": false
        },
        {
            "id": 6750,
            "adult": false
        },
        {
            "id": 43020,
            "adult": false
        },
        {
            "id": 39269,
            "adult": false
        },
        {
            "id": 41242,
            "adult": false
        },
        {
            "id": 63119,
            "adult": false
        },
        {
            "id": 7087,
            "adult": false
        },
        {
            "id": 2407,
            "adult": false
        },
        {
            "id": 67273,
            "adult": false
        },
        {
            "id": 60059,
            "adult": false
        },
        {
            "id": 1620,
            "adult": false
        },
        {
            "id": 65628,
            "adult": false
        },
        {
            "id": 62117,
            "adult": false
        },
        {
            "id": 62641,
            "adult": false
        },
        {
            "id": 35596,
            "adult": false
        },
        {
            "id": 43252,
            "adult": false
        },
        {
            "id": 67023,
            "adult": false
        },
        {
            "id": 67572,
            "adult": false
        },
        {
            "id": 63926,
            "adult": false
        },
        {
            "id": 32608,
            "adult": false
        },
        {
            "id": 46431,
            "adult": false
        }
    ],
    "page": 1,
    "total_pages": 2,
    "total_results": 122
}